Progress Memo 1
…
Packages

Data quality & complexity check

# A tibble: 1,851 × 2
   city           year_2020_percentage
   <chr>                         <dbl>
 1 Sapporo                        28  
 2 hakodate city                  35.4
 3 Otaru City                     39.8
 4 Asahikawa City                 35.6
 5 Muroran City                   37  
 6 Kushiro City                   33.9
 7 Obihiro City                   31.1
 8 Kitami City                    33.7
 9 Yubari City                    49.7
10 Iwamizawa City                 35  
# ℹ 1,841 more rows
…
